Lab/Lab5/Data/l5_E_a.csv

Record Length,2500,Points,-125.0000000E-3,39.99999911E-3,
Sample Interval,99.999997474E-6,s,-124.8999983E-3,59.999998659E-3,
Trigger Point,1.2500001E3,Samples,-124.7999966E-3,79.999998212E-3,
,,,-124.7000024E-3,59.999998659E-3,
,,,-124.6000007E-3,-19.9999996E-3,
,,,-124.4999990E-3,-39.99999911E-3,
Source,CH1,,-124.3999973E-3,-59.999998659E-3,
Vertical Units,Volts,,-124.3000031E-3,-79.999998212E-3,
Vertical Scale,499.999988824E-3,,-124.2000014E-3,-59.999998659E-3,
Vertical Offset,0,,-124.0999997E-3,0.0,
Horizontal Units,s,,-123.9999980E-3,0.0,
Horizontal Scale,24.99999937E-3,,-123.9000037E-3,0.0,
Pt Fmt,Y,,-123.8000020E-3,-19.9999996E-3,
Yzero,0.0,,-123.7000003E-3,-19.9999996E-3,
Probe Atten,10.0000000,,-123.5999987E-3,-19.9999996E-3,
,,,-123.4999970E-3,0.0,
Note,TBS 1052B-EDU - 10:59:40 AM   6/15/2021,,-123.4000027E-3,39.99999911E-3,
,,,-123.3000010E-3,79.999998212E-3,
,,,-123.1999993E-3,99.999994040E-3,
,,,-123.0999976E-3,79.999998212E-3,
,,,-123.0000034E-3,79.999998212E-3,
,,,-122.9000017E-3,59.999998659E-3,
,,,-122.8000000E-3,59.999998659E-3,
,,,-122.6999983E-3,99.999994040E-3,
,,,-122.5999966E-3,159.99999642E-3,
,,,-122.5000024E-3,119.9999973E-3,
,,,-122.4000007E-3,-119.9999973E-3,
,,,-122.2999990E-3,-779.999971390E-3,
,,,-122.1999973E-3,-1.3000000,
,,,-122.1000031E-3,-1.2800000,
,,,-122.0000014E-3,-979.999959469E-3,
,,,-121.8999997E-3,-340.00000358E-3,
,,,-121.7999980E-3,560.000002384E-3,
,,,-121.7000037E-3,1.3399999,
,,,-121.6000021E-3,1.6200000,
,,,-121.5000004E-3,1.4200000,
,,,-121.3999987E-3,1.0200000,
,,,-121.2999970E-3,319.99999285E-3,
,,,-121.2000027E-3,-399.99997616E-3,
,,,-121.1000010E-3,-899.999976158E-3,
,,,-120.9999993E-3,-1.0400000,
,,,-120.8999977E-3,-919.999957085E-3,
,,,-120.8000034E-3,-620.000004768E-3,
,,,-120.7000017E-3,-159.99999642E-3,
,,,-120.6000000E-3,219.99999881E-3,
,,,-120.4999983E-3,419.999986887E-3,
,,,-120.3999966E-3,539.999961853E-3,
,,,-120.3000024E-3,500.000000000E-3,
,,,-120.2000007E-3,439.999997616E-3,
,,,-120.0999990E-3,340.00000358E-3,
,,,-119.9999973E-3,259.99999046E-3,
,,,-119.9000031E-3,159.99999642E-3,
,,,-119.8000014E-3,99.999994040E-3,
,,,-119.6999997E-3,-19.9999996E-3,
,,,-119.5999980E-3,-199.99998808E-3,
,,,-119.5000038E-3,-340.00000358E-3,
,,,-119.4000021E-3,-459.999978542E-3,
,,,-119.3000004E-3,-519.999980927E-3,
,,,-119.1999987E-3,-399.99997616E-3,
,,,-119.0999970E-3,-199.99998808E-3,
,,,-119.0000027E-3,19.9999996E-3,
,,,-118.9000010E-3,259.99999046E-3,
,,,-118.7999994E-3,399.99997616E-3,
,,,-118.6999977E-3,439.999997616E-3,
,,,-118.6000034E-3,340.00000358E-3,
,,,-118.5000017E-3,179.99999225E-3,
,,,-118.4000000E-3,-39.99999911E-3,
,,,-118.2999983E-3,-219.99999881E-3,
,,,-118.1999967E-3,-319.99999285E-3,
,,,-118.1000024E-3,-359.99998450E-3,
,,,-118.0000007E-3,-359.99998450E-3,
,,,-117.8999990E-3,-239.99999464E-3,
,,,-117.7999973E-3,-99.999994040E-3,
,,,-117.7000031E-3,0.0,
,,,-117.6000014E-3,39.99999911E-3,
,,,-117.4999997E-3,99.999994040E-3,
,,,-117.3999980E-3,59.999998659E-3,
,,,-117.3000038E-3,119.9999973E-3,
,,,-117.2000021E-3,99.999994040E-3,
,,,-117.1000004E-3,99.999994040E-3,
,,,-116.9999987E-3,59.999998659E-3,
,,,-116.8999970E-3,19.9999996E-3,
,,,-116.8000028E-3,-19.9999996E-3,
,,,-116.7000011E-3,-99.999994040E-3,
,,,-116.5999994E-3,-140.0000006E-3,
,,,-116.4999977E-3,-179.99999225E-3,
,,,-116.4000034E-3,-159.99999642E-3,
,,,-116.3000017E-3,-99.999994040E-3,
,,,-116.2000000E-3,19.9999996E-3,
,,,-116.0999984E-3,99.999994040E-3,
,,,-115.9999967E-3,159.99999642E-3,
,,,-115.9000024E-3,179.99999225E-3,
,,,-115.8000007E-3,159.99999642E-3,
,,,-115.6999990E-3,140.0000006E-3,
,,,-115.5999973E-3,39.99999911E-3,
,,,-115.5000031E-3,-79.999998212E-3,
,,,-115.4000014E-3,-140.0000006E-3,
,,,-115.2999997E-3,-159.99999642E-3,
,,,-115.1999980E-3,-159.99999642E-3,
,,,-115.1000038E-3,-119.9999973E-3,
,,,-115.0000021E-3,-79.999998212E-3,
,,,-114.9000004E-3,0.0,
,,,-114.7999987E-3,99.999994040E-3,
,,,-114.6999970E-3,219.99999881E-3,
,,,-114.6000028E-3,259.99999046E-3,
,,,-114.5000011E-3,259.99999046E-3,
,,,-114.3999994E-3,179.99999225E-3,
,,,-114.2999977E-3,79.999998212E-3,
,,,-114.2000034E-3,-39.99999911E-3,
,,,-114.1000018E-3,-140.0000006E-3,
,,,-114.0000001E-3,-199.99998808E-3,
,,,-113.8999984E-3,-179.99999225E-3,
,,,-113.7999967E-3,-119.9999973E-3,
,,,-113.7000024E-3,-19.9999996E-3,
,,,-113.6000007E-3,39.99999911E-3,
,,,-113.4999990E-3,119.9999973E-3,
,,,-113.3999974E-3,159.99999642E-3,
,,,-113.3000031E-3,140.0000006E-3,
,,,-113.2000014E-3,99.999994040E-3,
,,,-113.0999997E-3,79.999998212E-3,
,,,-112.9999980E-3,39.99999911E-3,
,,,-112.9000038E-3,0.0,
,,,-112.8000021E-3,-39.99999911E-3,
,,,-112.7000004E-3,-59.999998659E-3,
,,,-112.5999987E-3,-79.999998212E-3,
,,,-112.4999970E-3,-59.999998659E-3,
,,,-112.4000028E-3,-59.999998659E-3,
,,,-112.3000011E-3,-19.9999996E-3,
,,,-112.1999994E-3,39.99999911E-3,
,,,-112.0999977E-3,39.99999911E-3,
,,,-112.0000035E-3,39.99999911E-3,
,,,-111.9000018E-3,39.99999911E-3,
,,,-111.8000001E-3,19.9999996E-3,
,,,-111.6999984E-3,-19.9999996E-3,
,,,-111.5999967E-3,-39.99999911E-3,
,,,-111.5000024E-3,-119.9999973E-3,
,,,-111.4000008E-3,-119.9999973E-3,
,,,-111.2999991E-3,-119.9999973E-3,
,,,-111.1999974E-3,-59.999998659E-3,
,,,-111.1000031E-3,-19.9999996E-3,
,,,-111.0000014E-3,39.99999911E-3,
,,,-110.8999997E-3,79.999998212E-3,
,,,-110.7999980E-3,99.999994040E-3,
,,,-110.7000038E-3,79.999998212E-3,
,,,-110.6000021E-3,39.99999911E-3,
,,,-110.5000004E-3,0.0,
,,,-110.3999987E-3,-39.99999911E-3,
,,,-110.2999970E-3,-19.9999996E-3,
,,,-110.2000028E-3,19.9999996E-3,
,,,-110.1000011E-3,59.999998659E-3,
,,,-109.9999994E-3,119.9999973E-3,
,,,-109.8999977E-3,140.0000006E-3,
,,,-109.8000035E-3,119.9999973E-3,
,,,-109.7000018E-3,-159.99999642E-3,
,,,-109.6000001E-3,-839.999973774E-3,
,,,-109.4999984E-3,-1.3600000,
,,,-109.3999967E-3,-1.3399999,
,,,-109.3000025E-3,-1.000000,
,,,-109.2000008E-3,-319.99999285E-3,
,,,-109.0999991E-3,599.999964237E-3,
,,,-108.9999974E-3,1.4000000,
,,,-108.9000031E-3,1.6400000,
,,,-108.8000014E-3,1.4599999,
,,,-108.6999997E-3,1.000000,
,,,-108.5999981E-3,319.99999285E-3,
,,,-108.5000038E-3,-419.999986887E-3,
,,,-108.4000021E-3,-879.999995232E-3,
,,,-108.3000004E-3,-1.0200000,
,,,-108.1999987E-3,-899.999976158E-3,
,,,-108.0999970E-3,-620.000004768E-3,
,,,-108.0000028E-3,-159.99999642E-3,
,,,-107.9000011E-3,199.99998808E-3,
,,,-107.7999994E-3,419.999986887E-3,
,,,-107.6999977E-3,519.999980927E-3,
,,,-107.6000035E-3,479.999989271E-3,
,,,-107.5000018E-3,419.999986887E-3,
,,,-107.4000001E-3,359.99998450E-3,
,,,-107.2999984E-3,280.00000119E-3,
,,,-107.2000042E-3,199.99998808E-3,
,,,-107.1000025E-3,119.9999973E-3,
,,,-107.0000008E-3,19.9999996E-3,
,,,-106.8999991E-3,-159.99999642E-3,
,,,-106.7999974E-3,-340.00000358E-3,
,,,-106.7000031E-3,-459.999978542E-3,
,,,-106.6000015E-3,-500.000000000E-3,
,,,-106.4999998E-3,-399.99997616E-3,
,,,-106.3999981E-3,-199.99998808E-3,
,,,-106.3000038E-3,79.999998212E-3,
,,,-106.2000021E-3,280.00000119E-3,
,,,-106.1000004E-3,439.999997616E-3,
,,,-105.9999987E-3,459.999978542E-3,
,,,-105.8999971E-3,359.99998450E-3,
,,,-105.8000028E-3,219.99999881E-3,
,,,-105.7000011E-3,0.0,
,,,-105.5999994E-3,-219.99999881E-3,
,,,-105.4999977E-3,-299.99998212E-3,
,,,-105.4000035E-3,-359.99998450E-3,
,,,-105.3000018E-3,-319.99999285E-3,
,,,-105.2000001E-3,-219.99999881E-3,
,,,-105.0999984E-3,-119.9999973E-3,
,,,-105.0000042E-3,-59.999998659E-3,
,,,-104.9000025E-3,19.9999996E-3,
,,,-104.8000008E-3,79.999998212E-3,
,,,-104.6999991E-3,99.999994040E-3,
,,,-104.5999974E-3,79.999998212E-3,
,,,-104.5000032E-3,119.9999973E-3,
,,,-104.4000015E-3,140.0000006E-3,
,,,-104.2999998E-3,79.999998212E-3,
,,,-104.1999981E-3,39.99999911E-3,
,,,-104.1000038E-3,-39.99999911E-3,
,,,-104.0000021E-3,-119.9999973E-3,
,,,-103.9000005E-3,-159.99999642E-3,
,,,-103.7999988E-3,-179.99999225E-3,
,,,-103.6999971E-3,-159.99999642E-3,
,,,-103.6000028E-3,-79.999998212E-3,
,,,-103.5000011E-3,-39.99999911E-3,
,,,-103.3999994E-3,79.999998212E-3,
,,,-103.2999977E-3,140.0000006E-3,
,,,-103.2000035E-3,140.0000006E-3,
,,,-103.1000018E-3,140.0000006E-3,
,,,-103.0000001E-3,119.9999973E-3,
,,,-102.8999984E-3,39.99999911E-3,
,,,-102.8000042E-3,-39.99999911E-3,
,,,-102.7000025E-3,-119.9999973E-3,
,,,-102.6000008E-3,-199.99998808E-3,
,,,-102.4999991E-3,-259.99999046E-3,
,,,-102.3999974E-3,-199.99998808E-3,
,,,-102.3000032E-3,-119.9999973E-3,
,,,-102.2000015E-3,39.99999911E-3,
,,,-102.0999998E-3,219.99999881E-3,
,,,-101.9999981E-3,280.00000119E-3,
,,,-101.9000039E-3,319.99999285E-3,
,,,-101.8000022E-3,199.99998808E-3,
,,,-101.7000005E-3,59.999998659E-3,
,,,-101.5999988E-3,-59.999998659E-3,
,,,-101.4999971E-3,-159.99999642E-3,
,,,-101.4000028E-3,-199.99998808E-3,
,,,-101.3000011E-3,-179.99999225E-3,
,,,-101.1999995E-3,-119.9999973E-3,
,,,-101.0999978E-3,-39.99999911E-3,
,,,-101.0000035E-3,0.0,
,,,-100.9000018E-3,59.999998659E-3,
,,,-100.8000001E-3,119.9999973E-3,
,,,-100.6999984E-3,99.999994040E-3,
,,,-100.6000042E-3,79.999998212E-3,
,,,-100.5000025E-3,79.999998212E-3,
,,,-100.4000008E-3,19.9999996E-3,
,,,-100.2999991E-3,0.0,
,,,-100.1999974E-3,-19.9999996E-3,
,,,-100.1000032E-3,-59.999998659E-3,
,,,-100.0000015E-3,-99.999994040E-3,
,,,-99.899999797E-3,-79.999998212E-3,
,,,-99.799998105E-3,-99.999994040E-3,
,,,-99.700003862E-3,-59.999998659E-3,
,,,-99.600002170E-3,-19.9999996E-3,
,,,-99.500000477E-3,79.999998212E-3,
,,,-99.399998784E-3,79.999998212E-3,
,,,-99.299997091E-3,99.999994040E-3,
,,,-99.200002849E-3,79.999998212E-3,
,,,-99.100001156E-3,39.99999911E-3,
,,,-98.999999464E-3,-19.9999996E-3,
,,,-98.899997771E-3,-99.999994040E-3,
,,,-98.800003529E-3,-119.9999973E-3,
,,,-98.700001836E-3,-119.9999973E-3,
,,,-98.600000143E-3,-39.99999911E-3,
,,,-98.499998450E-3,-19.9999996E-3,
,,,-98.400004208E-3,19.9999996E-3,
,,,-98.300002515E-3,39.99999911E-3,
,,,-98.200000823E-3,59.999998659E-3,
,,,-98.099999130E-3,59.999998659E-3,
,,,-97.999997437E-3,79.999998212E-3,
,,,-97.900003195E-3,59.999998659E-3,
,,,-97.800001502E-3,59.999998659E-3,
,,,-97.699999809E-3,59.999998659E-3,
,,,-97.599998116E-3,0.0,
,,,-97.500003874E-3,0.0,
,,,-97.400002182E-3,0.0,
,,,-97.300000489E-3,59.999998659E-3,
,,,-97.199998796E-3,140.0000006E-3,
,,,-97.099997103E-3,179.99999225E-3,
,,,-97.000002861E-3,99.999994040E-3,
,,,-96.900001168E-3,-419.999986887E-3,
,,,-96.799999475E-3,-1.1000000,
,,,-96.699997783E-3,-1.3399999,
,,,-96.600003541E-3,-1.1799999,
,,,-96.500001848E-3,-699.999988079E-3,
,,,-96.400000155E-3,99.999994040E-3,
,,,-96.299998462E-3,1.0599999,
,,,-96.200004220E-3,1.5400000,
,,,-96.100002527E-3,1.5599999,
,,,-96.000000834E-3,1.2800000,
,,,-95.899999142E-3,719.999969006E-3,
,,,-95.799997449E-3,-59.999998659E-3,
,,,-95.700003207E-3,-699.999988079E-3,
,,,-95.600001514E-3,-1.000000,
,,,-95.499999821E-3,-1.0200000,
,,,-95.399998128E-3,-799.999952316E-3,
,,,-95.300003886E-3,-379.99999523E-3,
,,,-95.200002193E-3,59.999998659E-3,
,,,-95.100000501E-3,340.00000358E-3,
,,,-94.999998808E-3,479.999989271E-3,
,,,-94.899997115E-3,539.999961853E-3,
,,,-94.800002873E-3,459.999978542E-3,
,,,-94.700001180E-3,379.99999523E-3,
,,,-94.599999487E-3,299.99998212E-3,
,,,-94.499997795E-3,219.99999881E-3,
,,,-94.400003552E-3,140.0000006E-3,
,,,-94.300001860E-3,79.999998212E-3,
,,,-94.200000167E-3,-79.999998212E-3,
,,,-94.099998474E-3,-259.99999046E-3,
,,,-94.000004232E-3,-439.999997616E-3,
,,,-93.900002539E-3,-519.999980927E-3,
,,,-93.800000846E-3,-459.999978542E-3,
,,,-93.699999154E-3,-340.00000358E-3,
,,,-93.599997461E-3,-79.999998212E-3,
,,,-93.500003219E-3,140.0000006E-3,
,,,-93.400001526E-3,379.99999523E-3,
,,,-93.299999833E-3,399.99997616E-3,
,,,-93.199998140E-3,399.99997616E-3,
,,,-93.100003898E-3,280.00000119E-3,
,,,-93.000002205E-3,79.999998212E-3,
,,,-92.900000513E-3,-119.9999973E-3,
,,,-92.799998820E-3,-259.99999046E-3,
,,,-92.699997127E-3,-340.00000358E-3,
,,,-92.600002885E-3,-319.99999285E-3,
,,,-92.500001192E-3,-280.00000119E-3,
,,,-92.399999499E-3,-179.99999225E-3,
,,,-92.299997807E-3,-59.999998659E-3,
,,,-92.200003564E-3,0.0,
,,,-92.100001872E-3,59.999998659E-3,
,,,-92.000000179E-3,119.9999973E-3,
,,,-91.899998486E-3,99.999994040E-3,
,,,-91.800004244E-3,119.9999973E-3,
,,,-91.700002551E-3,140.0000006E-3,
,,,-91.600000858E-3,119.9999973E-3,
,,,-91.499999166E-3,79.999998212E-3,
,,,-91.399997473E-3,0.0,
,,,-91.300003231E-3,-79.999998212E-3,
,,,-91.200001538E-3,-179.99999225E-3,
,,,-91.099999845E-3,-199.99998808E-3,
,,,-90.999998152E-3,-179.99999225E-3,
,,,-90.900003910E-3,-119.9999973E-3,
,,,-90.800002217E-3,-59.999998659E-3,
,,,-90.700000525E-3,39.99999911E-3,
,,,-90.599998832E-3,159.99999642E-3,
,,,-90.500004590E-3,179.99999225E-3,
,,,-90.400002897E-3,179.99999225E-3,
,,,-90.300001204E-3,179.99999225E-3,
,,,-90.199999511E-3,119.9999973E-3,
,,,-90.099997818E-3,59.999998659E-3,
,,,-90.000003576E-3,-19.9999996E-3,
,,,-89.900001884E-3,-140.0000006E-3,
,,,-89.800000191E-3,-239.99999464E-3,
,,,-89.699998498E-3,-280.00000119E-3,
,,,-89.600004256E-3,-179.99999225E-3,
,,,-89.500002563E-3,-59.999998659E-3,
,,,-89.400000870E-3,99.999994040E-3,
,,,-89.299999177E-3,239.99999464E-3,
,,,-89.199997485E-3,319.99999285E-3,
,,,-89.100003242E-3,319.99999285E-3,
,,,-89.000001550E-3,219.99999881E-3,
,,,-88.899999857E-3,79.999998212E-3,
,,,-88.799998164E-3,-59.999998659E-3,
,,,-88.700003922E-3,-140.0000006E-3,
,,,-88.600002229E-3,-199.99998808E-3,
,,,-88.500000536E-3,-159.99999642E-3,
,,,-88.399998844E-3,-140.0000006E-3,
,,,-88.300004601E-3,-19.9999996E-3,
,,,-88.200002909E-3,39.99999911E-3,
,,,-88.100001216E-3,99.999994040E-3,
,,,-87.999999523E-3,119.9999973E-3,
,,,-87.899997830E-3,99.999994040E-3,
,,,-87.800003588E-3,99.999994040E-3,
,,,-87.700001895E-3,59.999998659E-3,
,,,-87.600000203E-3,59.999998659E-3,
,,,-87.499998510E-3,0.0,
,,,-87.400004268E-3,-19.9999996E-3,
,,,-87.300002575E-3,-39.99999911E-3,
,,,-87.200000882E-3,-79.999998212E-3,
,,,-87.099999189E-3,-119.9999973E-3,
,,,-86.999997497E-3,-99.999994040E-3,
,,,-86.900003254E-3,-39.99999911E-3,
,,,-86.800001562E-3,0.0,
,,,-86.699999869E-3,59.999998659E-3,
,,,-86.599998176E-3,99.999994040E-3,
,,,-86.500003934E-3,59.999998659E-3,
,,,-86.400002241E-3,39.99999911E-3,
,,,-86.300000548E-3,-59.999998659E-3,
,,,-86.199998856E-3,-99.999994040E-3,
,,,-86.100004613E-3,-140.0000006E-3,
,,,-86.000002921E-3,-99.999994040E-3,
,,,-85.900001228E-3,-59.999998659E-3,
,,,-85.799999535E-3,19.9999996E-3,
,,,-85.699997842E-3,59.999998659E-3,
,,,-85.600003600E-3,59.999998659E-3,
,,,-85.500001907E-3,0.0,
,,,-85.400000215E-3,-39.99999911E-3,
,,,-85.299998522E-3,-39.99999911E-3,
,,,-85.200004280E-3,-59.999998659E-3,
,,,-85.100002587E-3,-39.99999911E-3,
,,,-85.000000894E-3,19.9999996E-3,
,,,-84.899999201E-3,59.999998659E-3,
,,,-84.799997509E-3,99.999994040E-3,
,,,-84.700003266E-3,119.9999973E-3,
,,,-84.600001574E-3,119.9999973E-3,
,,,-84.499999881E-3,159.99999642E-3,
,,,-84.399998188E-3,199.99998808E-3,
,,,-84.300003946E-3,39.99999911E-3,
,,,-84.200002253E-3,-579.999983311E-3,
,,,-84.100000560E-3,-1.3199999,
,,,-83.999998868E-3,-1.4800000,
,,,-83.900004625E-3,-1.2400000,
,,,-83.800002933E-3,-680.000007153E-3,
,,,-83.700001240E-3,219.99999881E-3,
,,,-83.599999547E-3,1.1799999,
,,,-83.499997854E-3,1.6799999,
,,,-83.400003612E-3,1.6200000,
,,,-83.300001919E-3,1.2800000,
,,,-83.200000226E-3,699.999988079E-3,
,,,-83.099998534E-3,-99.999994040E-3,
,,,-83.000004292E-3,-759.999990463E-3,
,,,-82.900002599E-3,-1.0599999,
,,,-82.800000906E-3,-1.0599999,
,,,-82.699999213E-3,-799.999952316E-3,
,,,-82.599997520E-3,-379.99999523E-3,
,,,-82.500003278E-3,19.9999996E-3,
,,,-82.400001585E-3,359.99998450E-3,
,,,-82.299999893E-3,500.000000000E-3,
,,,-82.199998200E-3,560.000002384E-3,
,,,-82.100003958E-3,519.999980927E-3,
,,,-82.000002265E-3,439.999997616E-3,
,,,-81.900000572E-3,379.99999523E-3,
,,,-81.799998879E-3,299.99998212E-3,
,,,-81.700004637E-3,179.99999225E-3,
,,,-81.600002944E-3,59.999998659E-3,
,,,-81.500001252E-3,-119.9999973E-3,
,,,-81.399999559E-3,-299.99998212E-3,
,,,-81.299997866E-3,-479.999989271E-3,
,,,-81.200003624E-3,-539.999961853E-3,
,,,-81.100001931E-3,-500.000000000E-3,
,,,-81.000000238E-3,-340.00000358E-3,
,,,-80.899998546E-3,-59.999998659E-3,
,,,-80.800004303E-3,219.99999881E-3,
,,,-80.700002611E-3,419.999986887E-3,
,,,-80.600000918E-3,479.999989271E-3,
,,,-80.499999225E-3,479.999989271E-3,
,,,-80.399997532E-3,319.99999285E-3,
,,,-80.300003290E-3,99.999994040E-3,
,,,-80.200001597E-3,-119.9999973E-3,
,,,-80.099999905E-3,-280.00000119E-3,
,,,-79.999998212E-3,-359.99998450E-3,
,,,-79.900003970E-3,-379.99999523E-3,
,,,-79.800002277E-3,-280.00000119E-3,
,,,-79.700000584E-3,-179.99999225E-3,
,,,-79.599998891E-3,-79.999998212E-3,
,,,-79.500004649E-3,0.0,
,,,-79.400002956E-3,59.999998659E-3,
,,,-79.300001264E-3,99.999994040E-3,
,,,-79.199999571E-3,140.0000006E-3,
,,,-79.099997878E-3,140.0000006E-3,
,,,-79.000003636E-3,119.9999973E-3,
,,,-78.900001943E-3,99.999994040E-3,
,,,-78.800000250E-3,59.999998659E-3,
,,,-78.699998558E-3,-19.9999996E-3,
,,,-78.600004315E-3,-79.999998212E-3,
,,,-78.500002623E-3,-199.99998808E-3,
,,,-78.400000930E-3,-179.99999225E-3,
,,,-78.299999237E-3,-199.99998808E-3,
,,,-78.199997544E-3,-140.0000006E-3,
,,,-78.100003302E-3,-39.99999911E-3,
,,,-78.000001609E-3,59.999998659E-3,
,,,-77.899999917E-3,140.0000006E-3,
,,,-77.799998224E-3,179.99999225E-3,
,,,-77.700003982E-3,199.99998808E-3,
,,,-77.600002289E-3,199.99998808E-3,
,,,-77.500000596E-3,99.999994040E-3,
,,,-77.399998903E-3,39.99999911E-3,
,,,-77.300004661E-3,-79.999998212E-3,
,,,-77.200002968E-3,-140.0000006E-3,
,,,-77.100001276E-3,-239.99999464E-3,
,,,-76.999999583E-3,-280.00000119E-3,
,,,-76.899997890E-3,-219.99999881E-3,
,,,-76.800003648E-3,-99.999994040E-3,
,,,-76.700001955E-3,59.999998659E-3,
,,,-76.600000262E-3,219.99999881E-3,
,,,-76.499998569E-3,319.99999285E-3,
,,,-76.400004327E-3,340.00000358E-3,
,,,-76.300002635E-3,239.99999464E-3,
,,,-76.200000942E-3,59.999998659E-3,
,,,-76.099999249E-3,-59.999998659E-3,
,,,-75.999997556E-3,-159.99999642E-3,
,,,-75.900003314E-3,-219.99999881E-3,
,,,-75.800001621E-3,-219.99999881E-3,
,,,-75.699999928E-3,-140.0000006E-3,
,,,-75.599998236E-3,-59.999998659E-3,
,,,-75.500003994E-3,19.9999996E-3,
,,,-75.400002301E-3,99.999994040E-3,
,,,-75.300000608E-3,99.999994040E-3,
,,,-75.199998915E-3,140.0000006E-3,
,,,-75.100004673E-3,99.999994040E-3,
,,,-75.000002980E-3,79.999998212E-3,
,,,-74.900001287E-3,19.9999996E-3,
,,,-74.799999595E-3,0.0,
,,,-74.699997902E-3,-39.99999911E-3,
,,,-74.600003660E-3,-39.99999911E-3,
,,,-74.500001967E-3,-79.999998212E-3,
,,,-74.400000274E-3,-79.999998212E-3,
,,,-74.299998581E-3,-79.999998212E-3,
,,,-74.200004339E-3,-59.999998659E-3,
,,,-74.100002646E-3,-19.9999996E-3,
,,,-74.000000954E-3,39.99999911E-3,
,,,-73.899999261E-3,79.999998212E-3,
,,,-73.799997568E-3,99.999994040E-3,
,,,-73.700003326E-3,79.999998212E-3,
,,,-73.600001633E-3,19.9999996E-3,
,,,-73.499999940E-3,-19.9999996E-3,
,,,-73.399998248E-3,-59.999998659E-3,
,,,-73.300004005E-3,-59.999998659E-3,
,,,-73.200002313E-3,-59.999998659E-3,
,,,-73.100000620E-3,-19.9999996E-3,
,,,-72.999998927E-3,39.99999911E-3,
,,,-72.900004685E-3,19.9999996E-3,
,,,-72.800002992E-3,19.9999996E-3,
,,,-72.700001299E-3,0.0,
,,,-72.599999607E-3,0.0,
,,,-72.499997914E-3,19.9999996E-3,
,,,-72.400003672E-3,0.0,
,,,-72.300001979E-3,0.0,
,,,-72.200000286E-3,19.9999996E-3,
,,,-72.099998593E-3,79.999998212E-3,
,,,-72.000004351E-3,140.0000006E-3,
,,,-71.900002658E-3,179.99999225E-3,
,,,-71.800000966E-3,239.99999464E-3,
,,,-71.699999273E-3,239.99999464E-3,
,,,-71.600005031E-3,19.9999996E-3,
,,,-71.500003338E-3,-719.999969006E-3,
,,,-71.400001645E-3,-1.4399999,
,,,-71.299999952E-3,-1.5200000,
,,,-71.199998260E-3,-1.2400000,
,,,-71.100004017E-3,-620.000004768E-3,
,,,-71.000002325E-3,359.99998450E-3,
,,,-70.900000632E-3,1.3399999,
,,,-70.799998939E-3,1.7400000,
,,,-70.700004697E-3,1.6400000,
,,,-70.600003004E-3,1.2600000,
,,,-70.500001311E-3,599.999964237E-3,
,,,-70.399999619E-3,-259.99999046E-3,
,,,-70.299997926E-3,-879.999995232E-3,
,,,-70.200003684E-3,-1.0799999,
,,,-70.100001991E-3,-1.0599999,
,,,-70.000000298E-3,-779.999971390E-3,
