Lab/Lab6/Data/l6_A_A2.csv

Record Length,2500,Points,679.999997374E-6,-1.2800000,
Sample Interval,400.00000467E-9,s,680.400000419E-6,-1.3600000,
Trigger Point,-1.7000001E3,Samples,680.800003465E-6,-1.3600000,
,,,681.200006511E-6,-1.3600000,
,,,681.600009557E-6,-1.3600000,
,,,682.000012603E-6,-1.4000000,
Source,CH1,,682.400015648E-6,-1.4399999,
Vertical Units,Volts,,682.800018694E-6,-1.4800000,
Vertical Scale,999.999977648E-3,,683.200021740E-6,-1.4399999,
Vertical Offset,0,,683.600024786E-6,-1.5200000,
Horizontal Units,s,,683.999969624E-6,-1.5200000,
Horizontal Scale,100.0000012E-6,,684.399972670E-6,-1.5200000,
Pt Fmt,Y,,684.799975716E-6,-1.4800000,
Yzero,40.00000000E-3,,685.199978761E-6,-1.5599999,
Probe Atten,1.000000,,685.599981807E-6,-1.5599999,
,,,685.999984853E-6,-1.5599999,
Note,TBS 1052B-EDU - 10:57:12 AM   6/21/2021,,686.399987899E-6,-1.5599999,
,,,686.799990945E-6,-1.6400000,
,,,687.199993990E-6,-1.6400000,
,,,687.599997036E-6,-1.6400000,
,,,688.000000082E-6,-1.6799999,
,,,688.400003128E-6,-1.7199999,
,,,688.800006174E-6,-1.6799999,
,,,689.200009219E-6,-1.7600000,
,,,689.600012265E-6,-1.7600000,
,,,690.000015311E-6,-1.8000000,
,,,690.400018357E-6,-1.8000000,
,,,690.800021403E-6,-1.8399999,
,,,691.200024448E-6,-1.8399999,
,,,691.599969286E-6,-1.8399999,
,,,691.999972332E-6,-1.8800000,
,,,692.399975378E-6,-1.8800000,
,,,692.799978424E-6,-1.8800000,
,,,693.199981470E-6,-1.8800000,
,,,693.599984515E-6,-2.0000000,
,,,693.999987561E-6,-1.9200000,
,,,694.399990607E-6,-1.9599999,
,,,694.799993653E-6,-2.0000000,
,,,695.199996699E-6,-2.0000000,
,,,695.599999744E-6,-1.9599999,
,,,696.000002790E-6,-2.0799999,
,,,696.400005836E-6,-2.0799999,
,,,696.800008882E-6,-2.0799999,
,,,697.200011928E-6,-2.0799999,
,,,697.600014973E-6,-2.1199999,
,,,698.000018019E-6,-2.1199999,
,,,698.400021065E-6,-2.0799999,
,,,698.800024111E-6,-2.1199999,
,,,699.199968949E-6,-2.1199999,
,,,699.599971995E-6,-2.2000000,
,,,699.999975041E-6,-2.2000000,
,,,700.399978086E-6,-2.1599998,
,,,700.799981132E-6,-2.2000000,
,,,701.199984178E-6,-2.2800000,
,,,701.599987224E-6,-2.2800000,
,,,701.999990270E-6,-2.2400000,
,,,702.399993315E-6,-2.3199999,
,,,702.799996361E-6,-2.2800000,
,,,703.199999407E-6,-2.2800000,
,,,703.600002453E-6,-2.3199999,
,,,704.000005499E-6,-2.3599999,
,,,704.400008544E-6,-2.3199999,
,,,704.800011590E-6,-2.3199999,
,,,705.200014636E-6,-2.3599999,
,,,705.600017682E-6,-2.3999999,
,,,706.000020728E-6,-2.3999999,
,,,706.400023773E-6,-2.3999999,
,,,706.799968611E-6,-2.4800000,
,,,707.199971657E-6,-2.4800000,
,,,707.599974703E-6,-2.4800000,
,,,707.999977749E-6,-2.4800000,
,,,708.399980795E-6,-2.5200000,
,,,708.799983840E-6,-2.4800000,
,,,709.199986886E-6,-2.5200000,
,,,709.599989932E-6,-2.5200000,
,,,709.999992978E-6,-2.5599999,
,,,710.399996024E-6,-2.5200000,
,,,710.799999069E-6,-2.5599999,
,,,711.200002115E-6,-2.5999999,
,,,711.600005161E-6,-2.5999999,
,,,712.000008207E-6,-2.5999999,
,,,712.400011253E-6,-2.5999999,
,,,712.800014298E-6,-2.6399999,
,,,713.200017344E-6,-2.6399999,
,,,713.600020390E-6,-2.5999999,
,,,714.000023436E-6,-2.6799998,
,,,714.400026482E-6,-2.6799998,
,,,714.799971320E-6,-2.6799998,
,,,715.199974366E-6,-2.6799998,
,,,715.599977411E-6,-2.72000003,
,,,715.999980457E-6,-2.6799998,
,,,716.399983503E-6,-2.75999999,
,,,716.799986549E-6,-2.72000003,
,,,717.199989595E-6,-2.75999999,
,,,717.599992640E-6,-2.79999995,
,,,717.999995686E-6,-2.79999995,
,,,718.399998732E-6,-2.79999995,
,,,718.800001778E-6,-2.75999999,
,,,719.200004824E-6,-2.83999991,
,,,719.600007869E-6,-2.83999991,
,,,720.000010915E-6,-2.83999991,
,,,720.400013961E-6,-2.83999991,
,,,720.800017007E-6,-2.83999991,
,,,721.200020052E-6,-2.87999988,
,,,721.600023098E-6,-2.91999984,
,,,722.000026144E-6,-2.83999991,
,,,722.399970982E-6,-2.87999988,
,,,722.799974028E-6,-2.87999988,
,,,723.199977074E-6,-2.96000004,
,,,723.599980120E-6,-2.87999988,
,,,723.999983165E-6,-2.96000004,
,,,724.399986211E-6,-2.91999984,
,,,724.799989257E-6,-2.96000004,
,,,725.199992303E-6,-2.96000004,
,,,725.599995349E-6,-3.00000000,
,,,725.999998394E-6,-3.00000000,
,,,726.400001440E-6,-3.00000000,
,,,726.800004486E-6,-3.00000000,
,,,727.200007532E-6,-2.96000004,
,,,727.600010578E-6,-3.00000000,
,,,728.000013623E-6,-3.00000000,
,,,728.400016669E-6,-3.03999996,
,,,728.800019715E-6,-3.03999996,
,,,729.200022761E-6,-3.07999992,
,,,729.600025807E-6,-3.03999996,
,,,729.999970645E-6,-3.07999992,
,,,730.399973691E-6,-3.07999992,
,,,730.799976736E-6,-3.07999992,
,,,731.199979782E-6,-3.07999992,
,,,731.599982828E-6,-3.11999989,
,,,731.999985874E-6,-3.07999992,
,,,732.399988919E-6,-3.11999989,
,,,732.799991965E-6,-3.11999989,
,,,733.199995011E-6,-3.11999989,
,,,733.599998057E-6,-3.11999989,
,,,734.000001103E-6,-3.07999992,
,,,734.400004148E-6,-3.11999989,
,,,734.800007194E-6,-3.19999981,
,,,735.200010240E-6,-3.15999985,
,,,735.600013286E-6,-3.19999981,
,,,736.000016332E-6,-3.15999985,
,,,736.400019377E-6,-3.24000001,
,,,736.800022423E-6,-3.15999985,
,,,737.200025469E-6,-3.19999981,
,,,737.599970307E-6,-3.19999981,
,,,737.999973353E-6,-3.19999981,
,,,738.399976399E-6,-3.19999981,
,,,738.799979445E-6,-3.19999981,
,,,739.199982490E-6,-3.24000001,
,,,739.599985536E-6,-3.24000001,
,,,739.999988582E-6,-3.19999981,
,,,740.399991628E-6,-3.24000001,
,,,740.799994674E-6,-3.24000001,
,,,741.199997719E-6,-3.24000001,
,,,741.600000765E-6,-3.27999997,
,,,742.000003811E-6,-3.27999997,
,,,742.400006857E-6,-3.27999997,
,,,742.800009903E-6,-3.27999997,
,,,743.200012948E-6,-3.24000001,
,,,743.600015994E-6,-3.27999997,
,,,744.000019040E-6,-3.24000001,
,,,744.400022086E-6,-3.24000001,
,,,744.800025132E-6,-3.27999997,
,,,745.199969970E-6,-3.27999997,
,,,745.599973015E-6,-3.31999993,
,,,745.999976061E-6,-3.27999997,
,,,746.399979107E-6,-3.27999997,
,,,746.799982153E-6,-3.27999997,
,,,747.199985199E-6,-3.27999997,
,,,747.599988244E-6,-3.31999993,
,,,747.999991290E-6,-3.31999993,
,,,748.399994336E-6,-3.31999993,
,,,748.799997382E-6,-3.31999993,
,,,749.200000428E-6,-3.27999997,
,,,749.600003473E-6,-3.31999993,
,,,750.000006519E-6,-3.27999997,
,,,750.400009565E-6,-3.31999993,
,,,750.800012611E-6,-3.31999993,
,,,751.200015657E-6,-3.31999993,
,,,751.600018702E-6,-3.27999997,
,,,752.000021748E-6,-3.31999993,
,,,752.400024794E-6,-3.31999993,
,,,752.799969632E-6,-3.31999993,
,,,753.199972678E-6,-3.31999993,
,,,753.599975724E-6,-3.39999986,
,,,753.999978770E-6,-3.35999990,
,,,754.399981815E-6,-3.35999990,
,,,754.799984861E-6,-3.31999993,
,,,755.199987907E-6,-3.35999990,
,,,755.599990953E-6,-3.31999993,
,,,755.999993999E-6,-3.31999993,
,,,756.399997044E-6,-3.35999990,
,,,756.800000090E-6,-3.31999993,
,,,757.200003136E-6,-3.31999993,
,,,757.600006182E-6,-3.35999990,
,,,758.000009228E-6,-3.31999993,
,,,758.400012273E-6,-3.31999993,
,,,758.800015319E-6,-3.31999993,
,,,759.200018365E-6,-3.27999997,
,,,759.600021411E-6,-3.31999993,
,,,760.000024457E-6,-3.27999997,
,,,760.399969295E-6,-3.31999993,
,,,760.799972340E-6,-3.31999993,
,,,761.199975386E-6,-3.31999993,
,,,761.599978432E-6,-3.31999993,
,,,761.999981478E-6,-3.31999993,
,,,762.399984524E-6,-3.31999993,
,,,762.799987569E-6,-3.31999993,
,,,763.199990615E-6,-3.31999993,
,,,763.599993661E-6,-3.31999993,
,,,763.999996707E-6,-3.27999997,
,,,764.399999753E-6,-3.31999993,
,,,764.800002798E-6,-3.27999997,
,,,765.200005844E-6,-3.27999997,
,,,765.600008890E-6,-3.27999997,
,,,766.000011936E-6,-3.31999993,
,,,766.400014982E-6,-3.27999997,
,,,766.800018027E-6,-3.27999997,
,,,767.200021073E-6,-3.27999997,
,,,767.600024119E-6,-3.27999997,
,,,768.000027165E-6,-3.24000001,
,,,768.399972003E-6,-3.31999993,
,,,768.799975049E-6,-3.27999997,
,,,769.199978095E-6,-3.27999997,
,,,769.599981140E-6,-3.27999997,
,,,769.999984186E-6,-3.27999997,
,,,770.399987232E-6,-3.27999997,
,,,770.799990278E-6,-3.27999997,
,,,771.199993324E-6,-3.27999997,
,,,771.599996369E-6,-3.19999981,
,,,771.999999415E-6,-3.24000001,
,,,772.400002461E-6,-3.24000001,
,,,772.800005507E-6,-3.27999997,
,,,773.200008553E-6,-3.24000001,
,,,773.600011598E-6,-3.24000001,
,,,774.000014644E-6,-3.24000001,
,,,774.400017690E-6,-3.24000001,
,,,774.800020736E-6,-3.19999981,
,,,775.200023782E-6,-3.19999981,
,,,775.600026827E-6,-3.24000001,
,,,775.999971665E-6,-3.19999981,
,,,776.399974711E-6,-3.15999985,
,,,776.799977757E-6,-3.19999981,
,,,777.199980803E-6,-3.19999981,
,,,777.599983849E-6,-3.19999981,
,,,777.999986894E-6,-3.15999985,
,,,778.399989940E-6,-3.15999985,
,,,778.799992986E-6,-3.15999985,
,,,779.199996032E-6,-3.15999985,
,,,779.599999078E-6,-3.15999985,
,,,780.000002123E-6,-3.07999992,
,,,780.400005169E-6,-3.11999989,
,,,780.800008215E-6,-3.11999989,
,,,781.200011261E-6,-3.07999992,
,,,781.600014307E-6,-3.11999989,
,,,782.000017352E-6,-3.11999989,
,,,782.400020398E-6,-3.07999992,
,,,782.800023444E-6,-3.07999992,
,,,783.200026490E-6,-3.11999989,
,,,783.599971328E-6,-3.07999992,
,,,783.999974374E-6,-3.07999992,
,,,784.399977420E-6,-3.07999992,
,,,784.799980465E-6,-3.03999996,
,,,785.199983511E-6,-3.03999996,
,,,785.599986557E-6,-3.07999992,
,,,785.999989603E-6,-3.03999996,
,,,786.399992649E-6,-3.00000000,
,,,786.799995694E-6,-3.00000000,
,,,787.199998740E-6,-3.00000000,
,,,787.600001786E-6,-3.03999996,
,,,788.000004832E-6,-3.03999996,
,,,788.400007877E-6,-2.96000004,
,,,788.800010923E-6,-3.00000000,
,,,789.200013969E-6,-2.96000004,
,,,789.600017015E-6,-2.91999984,
,,,790.000020061E-6,-2.91999984,
,,,790.400023106E-6,-2.96000004,
,,,790.800026152E-6,-2.96000004,
,,,791.199970990E-6,-2.87999988,
,,,791.599974036E-6,-2.91999984,
,,,791.999977082E-6,-2.91999984,
,,,792.399980128E-6,-2.83999991,
,,,792.799983174E-6,-2.87999988,
,,,793.199986219E-6,-2.83999991,
,,,793.599989265E-6,-2.87999988,
,,,793.999992311E-6,-2.83999991,
,,,794.399995357E-6,-2.83999991,
,,,794.799998403E-6,-2.79999995,
,,,795.200001448E-6,-2.83999991,
,,,795.600004494E-6,-2.83999991,
,,,796.000007540E-6,-2.75999999,
,,,796.400010586E-6,-2.75999999,
,,,796.800013632E-6,-2.79999995,
,,,797.200016677E-6,-2.72000003,
,,,797.600019723E-6,-2.75999999,
,,,798.000022769E-6,-2.72000003,
,,,798.400025815E-6,-2.72000003,
,,,798.799970653E-6,-2.72000003,
,,,799.199973699E-6,-2.72000003,
,,,799.599976745E-6,-2.6799998,
,,,799.999979790E-6,-2.6399999,
,,,800.399982836E-6,-2.6399999,
,,,800.799985882E-6,-2.6799998,
,,,801.199988928E-6,-2.6399999,
,,,801.599991973E-6,-2.5999999,
,,,801.999995019E-6,-2.5599999,
,,,802.399998065E-6,-2.6399999,
,,,802.800001111E-6,-2.5999999,
,,,803.200004157E-6,-2.5599999,
,,,803.600007202E-6,-2.5599999,
,,,804.000010248E-6,-2.5599999,
,,,804.400013294E-6,-2.5599999,
,,,804.800016340E-6,-2.5200000,
,,,805.200019386E-6,-2.5200000,
,,,805.600022431E-6,-2.5200000,
,,,806.000025477E-6,-2.5200000,
,,,806.399970315E-6,-2.4400001,
,,,806.799973361E-6,-2.4400001,
,,,807.199976407E-6,-2.4800000,
,,,807.599979453E-6,-2.4400001,
,,,807.999982499E-6,-2.3999999,
,,,808.399985544E-6,-2.3999999,
,,,808.799988590E-6,-2.3999999,
,,,809.199991636E-6,-2.3599999,
,,,809.599994682E-6,-2.3599999,
,,,809.999997728E-6,-2.3199999,
,,,810.400000773E-6,-2.2800000,
,,,810.800003819E-6,-2.3199999,
,,,811.200006865E-6,-2.3199999,
,,,811.600009911E-6,-2.2800000,
,,,812.000012957E-6,-2.2800000,
,,,812.400016002E-6,-2.2800000,
,,,812.800019048E-6,-2.2400000,
,,,813.200022094E-6,-2.2400000,
,,,813.600025140E-6,-2.2400000,
,,,813.999969978E-6,-2.2000000,
,,,814.399973024E-6,-2.1599998,
,,,814.799976069E-6,-2.2000000,
,,,815.199979115E-6,-2.1599998,
,,,815.599982161E-6,-2.1599998,
,,,815.999985207E-6,-2.1199999,
,,,816.399988253E-6,-2.1199999,
,,,816.799991298E-6,-2.1199999,
,,,817.199994344E-6,-2.0799999,
,,,817.599997390E-6,-2.0799999,
,,,818.000000436E-6,-2.0400000,
,,,818.400003482E-6,-2.0400000,
,,,818.800006527E-6,-2.0400000,
,,,819.200009573E-6,-2.0000000,
,,,819.600012619E-6,-2.0000000,
,,,820.000015665E-6,-1.9599999,
,,,820.400018711E-6,-1.9200000,
,,,820.800021756E-6,-1.9200000,
,,,821.200024802E-6,-1.9200000,
,,,821.600027848E-6,-1.9200000,
,,,821.999972686E-6,-1.8800000,
,,,822.399975732E-6,-1.8399999,
,,,822.799978778E-6,-1.8399999,
,,,823.199981824E-6,-1.8399999,
,,,823.599984869E-6,-1.8000000,
,,,823.999987915E-6,-1.8000000,
,,,824.399990961E-6,-1.8000000,
,,,824.799994007E-6,-1.7600000,
,,,825.199997053E-6,-1.7600000,
,,,825.600000098E-6,-1.7600000,
,,,826.000003144E-6,-1.7600000,
,,,826.400006190E-6,-1.7199999,
,,,826.800009236E-6,-1.6799999,
,,,827.200012282E-6,-1.6799999,
,,,827.600015327E-6,-1.6400000,
,,,828.000018373E-6,-1.6400000,
,,,828.400021419E-6,-1.6400000,
,,,828.800024465E-6,-1.5999999,
,,,829.200027511E-6,-1.5999999,
,,,829.599972349E-6,-1.5599999,
,,,829.999975394E-6,-1.5599999,
,,,830.399978440E-6,-1.5599999,
,,,830.799981486E-6,-1.5200000,
,,,831.199984532E-6,-1.5200000,
,,,831.599987578E-6,-1.5200000,
,,,831.999990623E-6,-1.4800000,
,,,832.399993669E-6,-1.4800000,
,,,832.799996715E-6,-1.4399999,
,,,833.199999761E-6,-1.4399999,
,,,833.600002807E-6,-1.4399999,
,,,834.000005852E-6,-1.3600000,
,,,834.400008898E-6,-1.3600000,
,,,834.800011944E-6,-1.3199999,
,,,835.200014990E-6,-1.3199999,
,,,835.600018036E-6,-1.2800000,
,,,836.000021081E-6,-1.2800000,
,,,836.400024127E-6,-1.2800000,
,,,836.800027173E-6,-1.2800000,
,,,837.199972011E-6,-1.2400000,
,,,837.599975057E-6,-1.1999999,
,,,837.999978103E-6,-1.1600000,
,,,838.399981149E-6,-1.1999999,
,,,838.799984194E-6,-1.1200000,
,,,839.199987240E-6,-1.1200000,
,,,839.599990286E-6,-1.1200000,
,,,839.999993332E-6,-1.0799999,
,,,840.399996378E-6,-1.0799999,
,,,840.799999423E-6,-1.0799999,
,,,841.200002469E-6,-1.0799999,
,,,841.600005515E-6,-1.000000,
,,,842.000008561E-6,-1.000000,
,,,842.400011607E-6,-1.000000,
,,,842.800014652E-6,-919.999957085E-3,
,,,843.200017698E-6,-959.999978542E-3,
,,,843.600020744E-6,-959.999978542E-3,
,,,844.000023790E-6,-919.999957085E-3,
,,,844.400026836E-6,-879.999995232E-3,
,,,844.799971674E-6,-839.999973774E-3,
,,,845.199974719E-6,-839.999973774E-3,
,,,845.599977765E-6,-799.999952316E-3,
,,,845.999980811E-6,-799.999952316E-3,
,,,846.399983857E-6,-799.999952316E-3,
,,,846.799986903E-6,-799.999952316E-3,
,,,847.199989948E-6,-719.999969006E-3,
,,,847.599992994E-6,-759.999990463E-3,
,,,847.999996040E-6,-719.999969006E-3,
,,,848.399999086E-6,-680.000007153E-3,
,,,848.800002132E-6,-680.000007153E-3,
,,,849.200005177E-6,-639.999985695E-3,
,,,849.600008223E-6,-599.999964237E-3,
,,,850.000011269E-6,-599.999964237E-3,
,,,850.400014315E-6,-599.999964237E-3,
,,,850.800017361E-6,-560.000002384E-3,
,,,851.200020406E-6,-519.999980927E-3,
,,,851.600023452E-6,-519.999980927E-3,
,,,852.000026498E-6,-560.000002384E-3,
,,,852.399971336E-6,-479.999989271E-3,
,,,852.799974382E-6,-439.999997616E-3,
,,,853.199977428E-6,-479.999989271E-3,
,,,853.599980474E-6,-479.999989271E-3,
,,,853.999983519E-6,-399.99997616E-3,
,,,854.399986565E-6,-399.99997616E-3,
,,,854.799989611E-6,-399.99997616E-3,
,,,855.199992657E-6,-319.99999285E-3,
,,,855.599995703E-6,-319.99999285E-3,
,,,855.999998748E-6,-319.99999285E-3,
,,,856.400001794E-6,-280.00000119E-3,
,,,856.800004840E-6,-239.99999464E-3,
,,,857.200007886E-6,-280.00000119E-3,
,,,857.600010931E-6,-239.99999464E-3,
,,,858.000013977E-6,-199.99998808E-3,
,,,858.400017023E-6,-119.9999973E-3,
,,,858.800020069E-6,-159.99999642E-3,
,,,859.200023115E-6,-159.99999642E-3,
,,,859.600026160E-6,-119.9999973E-3,
,,,859.999970999E-6,-119.9999973E-3,
,,,860.399974044E-6,-119.9999973E-3,
,,,860.799977090E-6,-79.999998212E-3,
,,,861.199980136E-6,-39.99999911E-3,
,,,861.599983182E-6,-39.99999911E-3,
,,,861.999986228E-6,-39.99999911E-3,
,,,862.399989273E-6,0.0,
,,,862.799992319E-6,39.99999911E-3,
,,,863.199995365E-6,39.99999911E-3,
,,,863.599998411E-6,119.9999973E-3,
,,,864.000001457E-6,79.999998212E-3,
,,,864.400004502E-6,119.9999973E-3,
,,,864.800007548E-6,159.99999642E-3,
,,,865.200010594E-6,159.99999642E-3,
,,,865.600013640E-6,159.99999642E-3,
,,,866.000016686E-6,199.99998808E-3,
,,,866.400019731E-6,199.99998808E-3,
,,,866.800022777E-6,239.99999464E-3,
,,,867.200025823E-6,199.99998808E-3,
,,,867.599970661E-6,280.00000119E-3,
,,,867.999973707E-6,280.00000119E-3,
,,,868.399976753E-6,359.99998450E-3,
,,,868.799979798E-6,280.00000119E-3,
,,,869.199982844E-6,359.99998450E-3,
,,,869.599985890E-6,359.99998450E-3,
,,,869.999988936E-6,359.99998450E-3,
,,,870.399991982E-6,439.999997616E-3,
,,,870.799995027E-6,439.999997616E-3,
,,,871.199998073E-6,479.999989271E-3,
,,,871.600001119E-6,479.999989271E-3,
,,,872.000004165E-6,479.999989271E-3,
,,,872.400007211E-6,479.999989271E-3,
,,,872.800010256E-6,560.000002384E-3,
,,,873.200013302E-6,560.000002384E-3,
,,,873.600016348E-6,560.000002384E-3,
,,,874.000019394E-6,599.999964237E-3,
,,,874.400022440E-6,599.999964237E-3,
,,,874.800025485E-6,599.999964237E-3,
,,,875.200028531E-6,599.999964237E-3,
,,,875.599973369E-6,639.999985695E-3,
,,,875.999976415E-6,680.000007153E-3,
,,,876.399979461E-6,719.999969006E-3,
,,,876.799982507E-6,719.999969006E-3,
,,,877.199985553E-6,719.999969006E-3,
,,,877.599988598E-6,759.999990463E-3,
,,,877.999991644E-6,759.999990463E-3,
,,,878.399994690E-6,799.999952316E-3,
,,,878.799997736E-6,839.999973774E-3,
,,,879.200000782E-6,799.999952316E-3,
,,,879.600003827E-6,839.999973774E-3,
,,,880.000006873E-6,879.999995232E-3,
,,,880.400009919E-6,839.999973774E-3,
,,,880.800012965E-6,879.999995232E-3,
,,,881.200016011E-6,959.999978542E-3,
,,,881.600019056E-6,959.999978542E-3,
,,,882.000022102E-6,959.999978542E-3,
,,,882.400025148E-6,959.999978542E-3,
,,,882.800028194E-6,959.999978542E-3,
,,,883.199973032E-6,1.000000,
,,,883.599976078E-6,1.0400000,
,,,883.999979123E-6,1.0799999,
,,,884.399982169E-6,1.0799999,
,,,884.799985215E-6,1.1200000,
,,,885.199988261E-6,1.0799999,
,,,885.599991307E-6,1.1600000,
,,,885.999994352E-6,1.1200000,
,,,886.399997398E-6,1.1600000,
,,,886.800000444E-6,1.1999999,
,,,887.200003490E-6,1.1999999,
,,,887.600006536E-6,1.2400000,
,,,888.000009581E-6,1.2400000,
,,,888.400012627E-6,1.2800000,
,,,888.800015673E-6,1.3199999,
,,,889.200018719E-6,1.3199999,
,,,889.600021765E-6,1.3199999,
,,,890.000024810E-6,1.3199999,
,,,890.400027856E-6,1.3600000,
,,,890.799972694E-6,1.3199999,
,,,891.199975740E-6,1.4000000,
,,,891.599978786E-6,1.4000000,
,,,891.999981832E-6,1.4000000,
,,,892.399984878E-6,1.4800000,
,,,892.799987923E-6,1.4800000,
,,,893.199990969E-6,1.5200000,
,,,893.599994015E-6,1.5200000,
,,,893.999997061E-6,1.5200000,
,,,894.400000107E-6,1.5200000,
,,,894.800003152E-6,1.5200000,
,,,895.200006198E-6,1.5599999,
,,,895.600009244E-6,1.5999999,
,,,896.000012290E-6,1.5599999,
,,,896.400015336E-6,1.6400000,
,,,896.800018381E-6,1.6400000,
,,,897.200021427E-6,1.6799999,
,,,897.600024473E-6,1.6799999,
,,,898.000027519E-6,1.7199999,
,,,898.399972357E-6,1.7199999,
,,,898.799975403E-6,1.7199999,
,,,899.199978448E-6,1.7199999,
,,,899.599981494E-6,1.7600000,
,,,899.999984540E-6,1.8000000,
,,,900.399987586E-6,1.8000000,
,,,900.799990632E-6,1.8000000,
,,,901.199993677E-6,1.8000000,
,,,901.599996723E-6,1.8399999,
,,,901.999999769E-6,1.8399999,
,,,902.400002815E-6,1.8800000,
,,,902.800005861E-6,1.8800000,
,,,903.200008906E-6,1.9200000,
,,,903.600011952E-6,1.9200000,
,,,904.000014998E-6,1.9599999,
,,,904.400018044E-6,1.9599999,
,,,904.800021090E-6,1.9599999,
,,,905.200024135E-6,2.0000000,
,,,905.600027181E-6,2.0400000,
,,,905.999972019E-6,2.0799999,
,,,906.399975065E-6,2.0400000,
,,,906.799978111E-6,2.0000000,
,,,907.199981157E-6,2.0799999,
,,,907.599984203E-6,2.0799999,
,,,907.999987248E-6,2.1199999,
,,,908.399990294E-6,2.0799999,
,,,908.799993340E-6,2.1599998,
,,,909.199996386E-6,2.1599998,
,,,909.599999432E-6,2.1599998,
,,,910.000002477E-6,2.1599998,
,,,910.400005523E-6,2.2000000,
,,,910.800008569E-6,2.2400000,
,,,911.200011615E-6,2.2800000,
,,,911.600014661E-6,2.2400000,
,,,912.000017706E-6,2.2800000,
,,,912.400020752E-6,2.2800000,
,,,912.800023798E-6,2.3199999,
,,,913.200026844E-6,2.3199999,
,,,913.599971682E-6,2.2800000,
,,,913.999974728E-6,2.3199999,
,,,914.399977773E-6,2.3599999,
,,,914.799980819E-6,2.3599999,
,,,915.199983865E-6,2.3599999,
,,,915.599986911E-6,2.3999999,
,,,915.999989957E-6,2.3999999,
,,,916.399993002E-6,2.4400001,
,,,916.799996048E-6,2.4400001,
