Lab/Lab6/Data/l6_D_3.csv

Record Length,2500,Points,-3.30000021E-3,52.00000000,,Record Length,2500,Points,-3.30000021E-3,2.0000000,
Sample Interval,9.999999747E-6,s,-3.29000014E-3,52.00000000,,Sample Interval,9.999999747E-6,s,-3.29000014E-3,2.0000000,
Trigger Point,330.00002983,Samples,-3.28000030E-3,52.00000000,,Trigger Point,330.00002983,Samples,-3.28000030E-3,2.0000000,
,,,-3.27000022E-3,52.00000000,,,,,-3.27000022E-3,2.0000000,
,,,-3.26000014E-3,52.00000000,,,,,-3.26000014E-3,2.0000000,
,,,-3.25000030E-3,52.00000000,,,,,-3.25000030E-3,2.0000000,
Source,CH1,,-3.24000022E-3,52.00000000,,Source,CH2,,-3.24000022E-3,2.0000000,
Vertical Units,Volts,,-3.23000015E-3,52.00000000,,Vertical Units,Volts,,-3.23000015E-3,2.0000000,
Vertical Scale,20.0000003,,-3.22000030E-3,52.00000000,,Vertical Scale,10.0000001,,-3.22000030E-3,2.0000000,
Vertical Offset,0,,-3.21000023E-3,52.00000000,,Vertical Offset,0,,-3.21000023E-3,2.0000000,
Horizontal Units,s,,-3.20000015E-3,51.20000076,,Horizontal Units,s,,-3.20000015E-3,2.0000000,
Horizontal Scale,2.4999999E-3,,-3.19000031E-3,52.00000000,,Horizontal Scale,2.4999999E-3,,-3.19000031E-3,2.0000000,
Pt Fmt,Y,,-3.18000023E-3,52.00000000,,Pt Fmt,Y,,-3.18000023E-3,2.0000000,
Yzero,1.3600000,,-3.17000016E-3,52.00000000,,Yzero,-2.0000000,,-3.17000016E-3,2.0000000,
Probe Atten,10.0000000,,-3.16000031E-3,52.00000000,,Probe Atten,10.0000000,,-3.16000031E-3,2.0000000,
,,,-3.15000024E-3,52.00000000,,,,,-3.15000024E-3,2.0000000,
Note,TBS 1052B-EDU - 11:09:26 AM   6/24/2021,,-3.14000016E-3,52.00000000,,Note,TBS 1052B-EDU - 11:09:26 AM   6/24/2021,,-3.14000016E-3,2.0000000,
,,,-3.13000032E-3,52.00000000,,,,,-3.13000032E-3,2.0000000,
,,,-3.12000024E-3,52.00000000,,,,,-3.12000024E-3,2.0000000,
,,,-3.11000017E-3,52.00000000,,,,,-3.11000017E-3,2.0000000,
,,,-3.10000032E-3,52.00000000,,,,,-3.10000032E-3,2.0000000,
,,,-3.09000025E-3,52.00000000,,,,,-3.09000025E-3,2.0000000,
,,,-3.08000017E-3,52.00000000,,,,,-3.08000017E-3,2.0000000,
,,,-3.07000033E-3,52.00000000,,,,,-3.07000033E-3,2.0000000,
,,,-3.06000025E-3,52.00000000,,,,,-3.06000025E-3,2.0000000,
,,,-3.05000017E-3,51.20000076,,,,,-3.05000017E-3,2.0000000,
,,,-3.04000033E-3,52.00000000,,,,,-3.04000033E-3,2.0000000,
,,,-3.03000025E-3,51.20000076,,,,,-3.03000025E-3,2.0000000,
,,,-3.02000018E-3,52.00000000,,,,,-3.02000018E-3,2.0000000,
,,,-3.01000034E-3,52.00000000,,,,,-3.01000034E-3,2.0000000,
,,,-3.00000026E-3,52.00000000,,,,,-3.00000026E-3,2.0000000,
,,,-2.99000018E-3,51.20000076,,,,,-2.99000018E-3,2.0000000,
,,,-2.98000034E-3,52.00000000,,,,,-2.98000034E-3,2.0000000,
,,,-2.97000026E-3,52.00000000,,,,,-2.97000026E-3,2.0000000,
,,,-2.96000019E-3,52.79999924,,,,,-2.96000019E-3,2.0000000,
,,,-2.95000011E-3,51.20000076,,,,,-2.95000011E-3,2.0000000,
,,,-2.94000027E-3,51.20000076,,,,,-2.94000027E-3,2.0000000,
,,,-2.93000019E-3,52.00000000,,,,,-2.93000019E-3,2.0000000,
,,,-2.92000012E-3,52.00000000,,,,,-2.92000012E-3,2.0000000,
,,,-2.91000027E-3,52.00000000,,,,,-2.91000027E-3,2.0000000,
,,,-2.90000020E-3,52.00000000,,,,,-2.90000020E-3,2.0000000,
,,,-2.89000012E-3,52.00000000,,,,,-2.89000012E-3,2.0000000,
,,,-2.88000028E-3,52.00000000,,,,,-2.88000028E-3,2.0000000,
,,,-2.87000020E-3,52.00000000,,,,,-2.87000020E-3,2.0000000,
,,,-2.86000012E-3,52.00000000,,,,,-2.86000012E-3,2.0000000,
,,,-2.85000028E-3,52.00000000,,,,,-2.85000028E-3,2.0000000,
,,,-2.84000020E-3,52.00000000,,,,,-2.84000020E-3,2.0000000,
,,,-2.83000013E-3,52.00000000,,,,,-2.83000013E-3,2.0000000,
,,,-2.82000029E-3,52.00000000,,,,,-2.82000029E-3,2.0000000,
,,,-2.81000021E-3,52.00000000,,,,,-2.81000021E-3,2.4000001,
,,,-2.80000013E-3,52.00000000,,,,,-2.80000013E-3,2.0000000,
,,,-2.79000029E-3,52.00000000,,,,,-2.79000029E-3,2.0000000,
,,,-2.78000021E-3,52.00000000,,,,,-2.78000021E-3,2.0000000,
,,,-2.77000014E-3,52.00000000,,,,,-2.77000014E-3,2.0000000,
,,,-2.76000029E-3,52.00000000,,,,,-2.76000029E-3,2.0000000,
,,,-2.75000022E-3,51.20000076,,,,,-2.75000022E-3,2.0000000,
,,,-2.74000014E-3,52.00000000,,,,,-2.74000014E-3,2.0000000,
,,,-2.73000030E-3,51.20000076,,,,,-2.73000030E-3,2.0000000,
,,,-2.72000022E-3,52.00000000,,,,,-2.72000022E-3,2.0000000,
,,,-2.7100001E-3,52.00000000,,,,,-2.7100001E-3,2.0000000,
,,,-2.7000003E-3,52.00000000,,,,,-2.7000003E-3,2.0000000,
,,,-2.6900002E-3,52.00000000,,,,,-2.6900002E-3,2.0000000,
,,,-2.6800002E-3,52.00000000,,,,,-2.6800002E-3,2.0000000,
,,,-2.6700003E-3,52.00000000,,,,,-2.6700003E-3,2.0000000,
,,,-2.6600002E-3,52.00000000,,,,,-2.6600002E-3,2.0000000,
,,,-2.6500002E-3,52.00000000,,,,,-2.6500002E-3,2.0000000,
,,,-2.6400003E-3,52.00000000,,,,,-2.6400003E-3,2.0000000,
,,,-2.6300002E-3,52.00000000,,,,,-2.6300002E-3,2.0000000,
,,,-2.6200002E-3,52.00000000,,,,,-2.6200002E-3,2.0000000,
,,,-2.6100003E-3,52.00000000,,,,,-2.6100003E-3,2.0000000,
,,,-2.6000002E-3,52.00000000,,,,,-2.6000002E-3,2.0000000,
,,,-2.5900002E-3,52.00000000,,,,,-2.5900002E-3,2.0000000,
,,,-2.5800003E-3,52.00000000,,,,,-2.5800003E-3,2.0000000,
,,,-2.5700002E-3,52.00000000,,,,,-2.5700002E-3,2.0000000,
,,,-2.5600002E-3,52.00000000,,,,,-2.5600002E-3,2.4000001,
,,,-2.5500003E-3,52.00000000,,,,,-2.5500003E-3,2.0000000,
,,,-2.5400002E-3,52.00000000,,,,,-2.5400002E-3,2.0000000,
,,,-2.5300002E-3,52.00000000,,,,,-2.5300002E-3,2.0000000,
,,,-2.5200003E-3,52.00000000,,,,,-2.5200003E-3,2.0000000,
,,,-2.5100003E-3,51.20000076,,,,,-2.5100003E-3,2.0000000,
,,,-2.5000002E-3,51.20000076,,,,,-2.5000002E-3,2.0000000,
,,,-2.4900003E-3,52.00000000,,,,,-2.4900003E-3,2.0000000,
,,,-2.4800003E-3,52.00000000,,,,,-2.4800003E-3,2.0000000,
,,,-2.4700002E-3,51.20000076,,,,,-2.4700002E-3,2.0000000,
,,,-2.4600003E-3,52.00000000,,,,,-2.4600003E-3,2.0000000,
,,,-2.4500003E-3,52.00000000,,,,,-2.4500003E-3,2.0000000,
,,,-2.4400002E-3,52.00000000,,,,,-2.4400002E-3,2.0000000,
,,,-2.4300003E-3,52.00000000,,,,,-2.4300003E-3,2.0000000,
,,,-2.4200003E-3,52.00000000,,,,,-2.4200003E-3,2.0000000,
,,,-2.4100002E-3,52.00000000,,,,,-2.4100002E-3,2.0000000,
,,,-2.4000003E-3,52.00000000,,,,,-2.4000003E-3,2.0000000,
,,,-2.3900003E-3,52.00000000,,,,,-2.3900003E-3,2.0000000,
,,,-2.3800002E-3,52.00000000,,,,,-2.3800002E-3,2.0000000,
,,,-2.3700004E-3,52.00000000,,,,,-2.3700004E-3,2.0000000,
,,,-2.3600003E-3,52.00000000,,,,,-2.3600003E-3,2.0000000,
,,,-2.3500002E-3,52.00000000,,,,,-2.3500002E-3,2.4000001,
,,,-2.3400001E-3,52.00000000,,,,,-2.3400001E-3,2.0000000,
,,,-2.3300003E-3,52.00000000,,,,,-2.3300003E-3,2.0000000,
,,,-2.3200002E-3,52.00000000,,,,,-2.3200002E-3,2.0000000,
,,,-2.3100001E-3,52.00000000,,,,,-2.3100001E-3,2.0000000,
,,,-2.3000003E-3,52.00000000,,,,,-2.3000003E-3,2.0000000,
,,,-2.2900002E-3,52.00000000,,,,,-2.2900002E-3,2.0000000,
,,,-2.2800001E-3,52.00000000,,,,,-2.2800001E-3,2.0000000,
,,,-2.2700003E-3,52.00000000,,,,,-2.2700003E-3,2.0000000,
,,,-2.2600002E-3,51.20000076,,,,,-2.2600002E-3,2.0000000,
,,,-2.2500001E-3,52.00000000,,,,,-2.2500001E-3,2.0000000,
,,,-2.2400003E-3,52.00000000,,,,,-2.2400003E-3,2.0000000,
,,,-2.2300002E-3,51.20000076,,,,,-2.2300002E-3,2.0000000,
,,,-2.2200001E-3,52.00000000,,,,,-2.2200001E-3,2.0000000,
,,,-2.2100003E-3,52.00000000,,,,,-2.2100003E-3,2.0000000,
,,,-2.2000002E-3,52.00000000,,,,,-2.2000002E-3,2.0000000,
,,,-2.1900001E-3,52.00000000,,,,,-2.1900001E-3,2.0000000,
,,,-2.1800003E-3,52.00000000,,,,,-2.1800003E-3,2.0000000,
,,,-2.1700002E-3,52.00000000,,,,,-2.1700002E-3,2.0000000,
,,,-2.1600001E-3,52.00000000,,,,,-2.1600001E-3,2.0000000,
,,,-2.1500003E-3,52.00000000,,,,,-2.1500003E-3,2.0000000,
,,,-2.1400002E-3,51.20000076,,,,,-2.1400002E-3,2.0000000,
,,,-2.1300002E-3,52.00000000,,,,,-2.1300002E-3,2.0000000,
,,,-2.1200003E-3,52.00000000,,,,,-2.1200003E-3,2.0000000,
,,,-2.1100002E-3,52.00000000,,,,,-2.1100002E-3,2.0000000,
,,,-2.1000002E-3,52.00000000,,,,,-2.1000002E-3,2.0000000,
,,,-2.0900003E-3,52.00000000,,,,,-2.0900003E-3,2.0000000,
,,,-2.0800002E-3,52.00000000,,,,,-2.0800002E-3,2.0000000,
,,,-2.0700002E-3,52.00000000,,,,,-2.0700002E-3,2.0000000,
,,,-2.0600003E-3,52.00000000,,,,,-2.0600003E-3,2.0000000,
,,,-2.0500002E-3,51.20000076,,,,,-2.0500002E-3,2.0000000,
,,,-2.0400002E-3,52.00000000,,,,,-2.0400002E-3,2.0000000,
,,,-2.0300003E-3,52.00000000,,,,,-2.0300003E-3,2.0000000,
,,,-2.0200002E-3,52.00000000,,,,,-2.0200002E-3,2.0000000,
,,,-2.0100002E-3,51.20000076,,,,,-2.0100002E-3,2.0000000,
,,,-2.0000003E-3,51.20000076,,,,,-2.0000003E-3,2.0000000,
,,,-1.9900003E-3,52.00000000,,,,,-1.9900003E-3,2.0000000,
,,,-1.9800002E-3,52.00000000,,,,,-1.9800002E-3,2.0000000,
,,,-1.9700003E-3,52.00000000,,,,,-1.9700003E-3,2.0000000,
,,,-1.9600003E-3,51.20000076,,,,,-1.9600003E-3,2.0000000,
,,,-1.9500003E-3,52.00000000,,,,,-1.9500003E-3,2.0000000,
,,,-1.9400002E-3,51.20000076,,,,,-1.9400002E-3,2.0000000,
,,,-1.9300003E-3,52.00000000,,,,,-1.9300003E-3,2.0000000,
,,,-1.9200003E-3,52.00000000,,,,,-1.9200003E-3,2.0000000,
,,,-1.9100002E-3,51.20000076,,,,,-1.9100002E-3,2.0000000,
,,,-1.9000003E-3,52.00000000,,,,,-1.9000003E-3,2.0000000,
,,,-1.8900003E-3,52.00000000,,,,,-1.8900003E-3,2.0000000,
,,,-1.8800002E-3,51.20000076,,,,,-1.8800002E-3,2.0000000,
,,,-1.8700003E-3,52.00000000,,,,,-1.8700003E-3,2.0000000,
,,,-1.8600002E-3,51.20000076,,,,,-1.8600002E-3,2.0000000,
,,,-1.8500002E-3,51.20000076,,,,,-1.8500002E-3,2.0000000,
,,,-1.8400003E-3,52.00000000,,,,,-1.8400003E-3,2.0000000,
,,,-1.8300002E-3,52.00000000,,,,,-1.8300002E-3,2.0000000,
,,,-1.8200002E-3,51.20000076,,,,,-1.8200002E-3,2.0000000,
,,,-1.8100003E-3,52.00000000,,,,,-1.8100003E-3,2.0000000,
,,,-1.8000002E-3,52.00000000,,,,,-1.8000002E-3,2.0000000,
,,,-1.7900002E-3,52.00000000,,,,,-1.7900002E-3,2.0000000,
,,,-1.7800003E-3,51.20000076,,,,,-1.7800003E-3,2.0000000,
,,,-1.7700002E-3,52.00000000,,,,,-1.7700002E-3,2.0000000,
,,,-1.7600002E-3,52.00000000,,,,,-1.7600002E-3,2.0000000,
,,,-1.7500003E-3,52.00000000,,,,,-1.7500003E-3,2.0000000,
,,,-1.7400002E-3,52.00000000,,,,,-1.7400002E-3,2.0000000,
,,,-1.7300003E-3,52.00000000,,,,,-1.7300003E-3,2.4000001,
,,,-1.7200003E-3,52.00000000,,,,,-1.7200003E-3,2.0000000,
,,,-1.7100002E-3,52.00000000,,,,,-1.7100002E-3,2.0000000,
,,,-1.7000003E-3,52.00000000,,,,,-1.7000003E-3,2.0000000,
,,,-1.6900003E-3,52.00000000,,,,,-1.6900003E-3,2.0000000,
,,,-1.6800002E-3,52.00000000,,,,,-1.6800002E-3,2.0000000,
,,,-1.6700003E-3,52.00000000,,,,,-1.6700003E-3,2.0000000,
,,,-1.6600003E-3,52.00000000,,,,,-1.6600003E-3,2.0000000,
,,,-1.6500002E-3,52.00000000,,,,,-1.6500002E-3,2.0000000,
,,,-1.6400003E-3,52.00000000,,,,,-1.6400003E-3,2.0000000,
,,,-1.6300003E-3,52.00000000,,,,,-1.6300003E-3,2.0000000,
,,,-1.6200002E-3,52.00000000,,,,,-1.6200002E-3,2.0000000,
,,,-1.6100003E-3,52.00000000,,,,,-1.6100003E-3,2.0000000,
,,,-1.6000003E-3,51.20000076,,,,,-1.6000003E-3,2.0000000,
,,,-1.5900002E-3,52.00000000,,,,,-1.5900002E-3,2.0000000,
,,,-1.5800003E-3,52.00000000,,,,,-1.5800003E-3,2.0000000,
,,,-1.5700003E-3,52.00000000,,,,,-1.5700003E-3,2.0000000,
,,,-1.5600002E-3,52.00000000,,,,,-1.5600002E-3,2.0000000,
,,,-1.5500003E-3,52.00000000,,,,,-1.5500003E-3,2.0000000,
,,,-1.5400003E-3,52.00000000,,,,,-1.5400003E-3,2.0000000,
,,,-1.5300002E-3,52.00000000,,,,,-1.5300002E-3,2.0000000,
,,,-1.5200003E-3,52.00000000,,,,,-1.5200003E-3,2.0000000,
,,,-1.5100002E-3,52.00000000,,,,,-1.5100002E-3,2.0000000,
,,,-1.5000002E-3,52.00000000,,,,,-1.5000002E-3,2.0000000,
,,,-1.4900003E-3,52.00000000,,,,,-1.4900003E-3,2.0000000,
,,,-1.4800002E-3,52.00000000,,,,,-1.4800002E-3,2.0000000,
,,,-1.4700003E-3,52.00000000,,,,,-1.4700003E-3,2.0000000,
,,,-1.4600003E-3,52.00000000,,,,,-1.4600003E-3,2.0000000,
,,,-1.4500002E-3,52.00000000,,,,,-1.4500002E-3,2.0000000,
,,,-1.4400003E-3,51.20000076,,,,,-1.4400003E-3,2.0000000,
,,,-1.4300003E-3,52.00000000,,,,,-1.4300003E-3,2.0000000,
,,,-1.4200002E-3,52.00000000,,,,,-1.4200002E-3,2.0000000,
,,,-1.4100003E-3,52.00000000,,,,,-1.4100003E-3,2.0000000,
,,,-1.4000003E-3,52.00000000,,,,,-1.4000003E-3,2.0000000,
,,,-1.3900002E-3,52.00000000,,,,,-1.3900002E-3,2.0000000,
,,,-1.3800003E-3,52.00000000,,,,,-1.3800003E-3,2.0000000,
,,,-1.3700003E-3,52.00000000,,,,,-1.3700003E-3,2.0000000,
,,,-1.3600002E-3,52.00000000,,,,,-1.3600002E-3,2.0000000,
,,,-1.3500003E-3,52.00000000,,,,,-1.3500003E-3,2.0000000,
,,,-1.3400003E-3,52.00000000,,,,,-1.3400003E-3,2.0000000,
,,,-1.3300002E-3,51.20000076,,,,,-1.3300002E-3,2.0000000,
,,,-1.3200003E-3,52.00000000,,,,,-1.3200003E-3,2.0000000,
,,,-1.3100003E-3,52.00000000,,,,,-1.3100003E-3,2.0000000,
,,,-1.3000002E-3,52.00000000,,,,,-1.3000002E-3,2.0000000,
,,,-1.2900003E-3,52.00000000,,,,,-1.2900003E-3,2.0000000,
,,,-1.2800003E-3,52.00000000,,,,,-1.2800003E-3,2.0000000,
,,,-1.2700002E-3,52.00000000,,,,,-1.2700002E-3,2.0000000,
,,,-1.2600003E-3,51.20000076,,,,,-1.2600003E-3,2.4000001,
,,,-1.2500003E-3,52.00000000,,,,,-1.2500003E-3,2.0000000,
,,,-1.2400002E-3,52.00000000,,,,,-1.2400002E-3,2.0000000,
,,,-1.2300003E-3,52.00000000,,,,,-1.2300003E-3,2.0000000,
,,,-1.2200002E-3,52.00000000,,,,,-1.2200002E-3,2.0000000,
,,,-1.2100002E-3,52.00000000,,,,,-1.2100002E-3,2.0000000,
,,,-1.2000003E-3,52.00000000,,,,,-1.2000003E-3,2.0000000,
,,,-1.1900002E-3,52.00000000,,,,,-1.1900002E-3,2.0000000,
,,,-1.1800003E-3,52.00000000,,,,,-1.1800003E-3,2.0000000,
,,,-1.1700003E-3,52.00000000,,,,,-1.1700003E-3,2.0000000,
,,,-1.1600002E-3,51.20000076,,,,,-1.1600002E-3,2.0000000,
,,,-1.1500003E-3,52.00000000,,,,,-1.1500003E-3,2.0000000,
,,,-1.1400003E-3,52.00000000,,,,,-1.1400003E-3,2.0000000,
,,,-1.1300002E-3,52.00000000,,,,,-1.1300002E-3,2.0000000,
,,,-1.1200003E-3,52.00000000,,,,,-1.1200003E-3,2.0000000,
,,,-1.1100003E-3,52.00000000,,,,,-1.1100003E-3,2.0000000,
,,,-1.1000002E-3,52.00000000,,,,,-1.1000002E-3,2.0000000,
,,,-1.0900003E-3,52.00000000,,,,,-1.0900003E-3,2.0000000,
,,,-1.0800003E-3,52.00000000,,,,,-1.0800003E-3,2.4000001,
,,,-1.0700002E-3,52.00000000,,,,,-1.0700002E-3,2.0000000,
,,,-1.0600003E-3,52.00000000,,,,,-1.0600003E-3,2.0000000,
,,,-1.0500003E-3,52.00000000,,,,,-1.0500003E-3,2.0000000,
,,,-1.0400002E-3,51.20000076,,,,,-1.0400002E-3,2.0000000,
,,,-1.0300003E-3,52.00000000,,,,,-1.0300003E-3,2.0000000,
,,,-1.0200003E-3,52.00000000,,,,,-1.0200003E-3,2.0000000,
,,,-1.0100002E-3,51.20000076,,,,,-1.0100002E-3,2.0000000,
,,,-1.0000003E-3,52.00000000,,,,,-1.0000003E-3,2.0000000,
,,,-990.000320598E-6,52.00000000,,,,,-990.000320598E-6,2.0000000,
,,,-980.000244454E-6,52.00000000,,,,,-980.000244454E-6,2.0000000,
,,,-970.000284724E-6,51.20000076,,,,,-970.000284724E-6,2.0000000,
,,,-960.000266787E-6,51.20000076,,,,,-960.000266787E-6,2.0000000,
,,,-950.000248849E-6,51.20000076,,,,,-950.000248849E-6,2.0000000,
,,,-940.000289120E-6,52.00000000,,,,,-940.000289120E-6,2.0000000,
,,,-930.000271183E-6,52.00000000,,,,,-930.000271183E-6,2.0000000,
,,,-920.000253245E-6,52.00000000,,,,,-920.000253245E-6,2.0000000,
,,,-910.000293516E-6,52.00000000,,,,,-910.000293516E-6,2.0000000,
,,,-900.000275578E-6,52.00000000,,,,,-900.000275578E-6,2.0000000,
,,,-890.000257641E-6,52.00000000,,,,,-890.000257641E-6,2.0000000,
,,,-880.000297911E-6,52.00000000,,,,,-880.000297911E-6,2.0000000,
,,,-870.000279974E-6,52.00000000,,,,,-870.000279974E-6,2.0000000,
,,,-860.000262037E-6,52.00000000,,,,,-860.000262037E-6,2.0000000,
,,,-850.000302307E-6,52.00000000,,,,,-850.000302307E-6,2.0000000,
,,,-840.000284370E-6,52.00000000,,,,,-840.000284370E-6,2.0000000,
,,,-830.000266433E-6,52.00000000,,,,,-830.000266433E-6,2.0000000,
,,,-820.000306703E-6,52.00000000,,,,,-820.000306703E-6,2.0000000,
,,,-810.000288766E-6,52.00000000,,,,,-810.000288766E-6,2.0000000,
,,,-800.000270829E-6,52.00000000,,,,,-800.000270829E-6,2.0000000,
,,,-790.000252891E-6,52.00000000,,,,,-790.000252891E-6,2.0000000,
,,,-780.000293162E-6,51.20000076,,,,,-780.000293162E-6,2.0000000,
,,,-770.000275224E-6,52.00000000,,,,,-770.000275224E-6,2.0000000,
,,,-760.000257287E-6,52.00000000,,,,,-760.000257287E-6,2.0000000,
,,,-750.000297558E-6,52.00000000,,,,,-750.000297558E-6,2.0000000,
,,,-740.000279620E-6,52.00000000,,,,,-740.000279620E-6,2.0000000,
,,,-730.000261683E-6,52.00000000,,,,,-730.000261683E-6,2.0000000,
,,,-720.000301953E-6,52.00000000,,,,,-720.000301953E-6,2.0000000,
,,,-710.000284016E-6,52.00000000,,,,,-710.000284016E-6,2.0000000,
,,,-700.000266079E-6,52.00000000,,,,,-700.000266079E-6,2.0000000,
,,,-690.000306349E-6,52.00000000,,,,,-690.000306349E-6,2.0000000,
,,,-680.000288412E-6,52.00000000,,,,,-680.000288412E-6,2.0000000,
,,,-670.000270475E-6,51.20000076,,,,,-670.000270475E-6,2.0000000,
,,,-660.000252537E-6,52.00000000,,,,,-660.000252537E-6,2.0000000,
,,,-650.000292808E-6,52.00000000,,,,,-650.000292808E-6,2.0000000,
,,,-640.000274871E-6,52.00000000,,,,,-640.000274871E-6,2.0000000,
,,,-630.000256933E-6,51.20000076,,,,,-630.000256933E-6,2.0000000,
,,,-620.000297204E-6,52.00000000,,,,,-620.000297204E-6,2.0000000,
,,,-610.000279266E-6,52.00000000,,,,,-610.000279266E-6,2.0000000,
,,,-600.000261329E-6,52.00000000,,,,,-600.000261329E-6,2.0000000,
,,,-590.000301600E-6,52.00000000,,,,,-590.000301600E-6,2.0000000,
,,,-580.000283662E-6,52.00000000,,,,,-580.000283662E-6,2.4000001,
,,,-570.000265725E-6,51.20000076,,,,,-570.000265725E-6,2.0000000,
,,,-560.000305995E-6,52.00000000,,,,,-560.000305995E-6,2.0000000,
,,,-550.000288058E-6,52.00000000,,,,,-550.000288058E-6,2.0000000,
,,,-540.000270121E-6,52.00000000,,,,,-540.000270121E-6,2.0000000,
,,,-530.000310391E-6,52.00000000,,,,,-530.000310391E-6,2.0000000,
,,,-520.000292454E-6,52.00000000,,,,,-520.000292454E-6,2.0000000,
,,,-510.000274517E-6,51.20000076,,,,,-510.000274517E-6,2.0000000,
,,,-500.000314787E-6,52.00000000,,,,,-500.000314787E-6,2.0000000,
,,,-490.000296850E-6,52.00000000,,,,,-490.000296850E-6,2.0000000,
,,,-480.000278912E-6,52.00000000,,,,,-480.000278912E-6,2.0000000,
,,,-470.000290079E-6,51.20000076,,,,,-470.000290079E-6,2.0000000,
,,,-460.000301246E-6,52.00000000,,,,,-460.000301246E-6,2.0000000,
,,,-450.000283308E-6,52.00000000,,,,,-450.000283308E-6,2.0000000,
,,,-440.000294475E-6,52.00000000,,,,,-440.000294475E-6,2.0000000,
,,,-430.000276538E-6,51.20000076,,,,,-430.000276538E-6,2.0000000,
,,,-420.000287704E-6,51.20000076,,,,,-420.000287704E-6,2.0000000,
,,,-410.000298871E-6,52.00000000,,,,,-410.000298871E-6,2.0000000,
,,,-400.00028093E-6,52.00000000,,,,,-400.00028093E-6,2.0000000,
,,,-390.00029210E-6,52.00000000,,,,,-390.00029210E-6,2.0000000,
,,,-380.00027416E-6,52.00000000,,,,,-380.00027416E-6,2.0000000,
,,,-370.00028533E-6,52.00000000,,,,,-370.00028533E-6,2.0000000,
,,,-360.00029650E-6,52.00000000,,,,,-360.00029650E-6,2.0000000,
,,,-350.00027856E-6,52.00000000,,,,,-350.00027856E-6,2.0000000,
,,,-340.00028973E-6,52.00000000,,,,,-340.00028973E-6,2.0000000,
,,,-330.00030089E-6,51.20000076,,,,,-330.00030089E-6,2.0000000,
,,,-320.00028295E-6,49.60000229,,,,,-320.00028295E-6,1.6000000,
,,,-310.00029412E-6,47.20000076,,,,,-310.00029412E-6,1.6000000,
,,,-300.00030529E-6,44.00000000,,,,,-300.00030529E-6,1.6000000,
,,,-290.00028735E-6,40.00000000,,,,,-290.00028735E-6,1.2000000,
,,,-280.00029852E-6,35.20000076,,,,,-280.00029852E-6,800.000011921E-3,
,,,-270.00028058E-6,29.60000038,,,,,-270.00028058E-6,800.000011921E-3,
,,,-260.00029175E-6,23.20000076,,,,,-260.00029175E-6,400.00000596E-3,
,,,-250.00030291E-6,17.6000004,,,,,-250.00030291E-6,0.0,
,,,-240.00028498E-6,11.1999998,,,,,-240.00028498E-6,-400.00000596E-3,
,,,-230.00029614E-6,4.00000000,,,,,-230.00029614E-6,-800.000011921E-3,
,,,-220.00029276E-6,-2.4000001,,,,,-220.00029276E-6,-800.000011921E-3,
,,,-210.00028937E-6,-8.800000191,,,,,-210.00028937E-6,-1.2000000,
,,,-200.00030054E-6,-15.1999998,,,,,-200.00030054E-6,-1.2000000,
,,,-190.00029715E-6,-20.80000114,,,,,-190.00029715E-6,-800.000011921E-3,
,,,-180.00029377E-6,-25.60000038,,,,,-180.00029377E-6,-800.000011921E-3,
,,,-170.00029038E-6,-31.20000076,,,,,-170.00029038E-6,-800.000011921E-3,
,,,-160.00028700E-6,-35.20000076,,,,,-160.00028700E-6,-400.00000596E-3,
,,,-150.00029816E-6,-38.40000153,,,,,-150.00029816E-6,0.0,
,,,-140.0002948E-6,-40.79999924,,,,,-140.0002948E-6,800.000011921E-3,
,,,-130.0002914E-6,-43.20000076,,,,,-130.0002914E-6,1.6000000,
,,,-120.0002953E-6,-44.00000000,,,,,-120.0002953E-6,2.0000000,
,,,-110.0002992E-6,-43.20000076,,,,,-110.0002992E-6,2.79999995,
